United States of America,,0,0
Australia,75000,0.2541511352,25.4151135208
Brazil,27000,0.0914944087,9.1494408675
Canada,,0,0
China,70000,0.2372077262,23.7207726195
Guinea,50000,0.1694340901,16.9434090139
India,24000,0.0813283633,8.1328363267
Indonesia,7100,0.0240596408,2.40596408
Jamaica,10000,0.033886818,3.3886818028
Malaysia,2000,0.0067773636,0.6777363606
Russian Federation,5500,0.0186377499,1.8637749915
Vietnam,2500,0.0084717045,0.8471704507
Other countries,22000,0.0745509997,7.4550999661
