United States of America,,0,0
India,3500,0.0997150997,9.9715099715
Kazakhstan,4600,0.1310541311,13.1054131054
South Africa,16000,0.4558404558,45.584045584
Turkey,6500,0.1851851852,18.5185185185
Other countries,4500,0.1282051282,12.8205128205
