Code,Region
AO,Africa
BJ,Africa
BW,Africa
BF,Africa
BI,Africa
CM,Africa
CV,Africa
CF,Africa
TD,Africa
KM,Africa
CG,Africa
CD,Africa
CI,Africa
DJ,Africa
EG,Africa
GQ,Africa
ER,Africa
SZ,Africa
ET,Africa
GA,Africa
GM,Africa
GH,Africa
GN,Africa
GW,Africa
KE,Africa
LS,Africa
LR,Africa
LY,Africa
MG,Africa
MW,Africa
ML,Africa
MR,Africa
MU,Africa
MA,Africa
MZ,Africa
NA,Africa
NE,Africa
NG,Africa
RW,Africa
ST,Africa
SN,Africa
SC,Africa
SL,Africa
SO,Africa
ZA,Africa
SS,Africa
SD,Africa
TZ,Africa
TG,Africa
TN,Africa
UG,Africa
ZM,Africa
ZW,Africa
AG,Americas
AR,Americas
BS,Americas
BB,Americas
BZ,Americas
BO,Americas
BR,Americas
CA,Americas
CL,Americas
CO,Americas
CR,Americas
CU,Americas
DM,Americas
DO,Americas
EC,Americas
SV,Americas
GD,Americas
GT,Americas
GY,Americas
HT,Americas
HN,Americas
JM,Americas
MX,Americas
NI,Americas
PA,Americas
PY,Americas
PE,Americas
KN,Americas
LC,Americas
VC,Americas
SR,Americas
TT,Americas
US,Americas
UY,Americas
VE,Americas
BH,Arab States
IQ,Arab States
JO,Arab States
KW,Arab States
LB,Arab States
OM,Arab States
QA,Arab States
SA,Arab States
SY,Arab States
AE,Arab States
YE,Arab States
AF,Asia and the Pacific
AU,Asia and the Pacific
BD,Asia and the Pacific
BN,Asia and the Pacific
KH,Asia and the Pacific
CN,Asia and the Pacific
CK,Asia and the Pacific
FJ,Asia and the Pacific
IN,Asia and the Pacific
ID,Asia and the Pacific
IR,Asia and the Pacific
JP,Asia and the Pacific
KI,Asia and the Pacific
KR,Asia and the Pacific
LA,Asia and the Pacific
MY,Asia and the Pacific
MV,Asia and the Pacific
MH,Asia and the Pacific
MN,Asia and the Pacific
MM,Asia and the Pacific
NP,Asia and the Pacific
NZ,Asia and the Pacific
PK,Asia and the Pacific
PW,Asia and the Pacific
PG,Asia and the Pacific
PH,Asia and the Pacific
WS,Asia and the Pacific
SG,Asia and the Pacific
SB,Asia and the Pacific
LK,Asia and the Pacific
TH,Asia and the Pacific
TL,Asia and the Pacific
TO,Asia and the Pacific
TV,Asia and the Pacific
VU,Asia and the Pacific
VN,Asia and the Pacific
AL,Europe and Central Asia
AM,Europe and Central Asia
AT,Europe and Central Asia
AZ,Europe and Central Asia
BY,Europe and Central Asia
BE,Europe and Central Asia
BA,Europe and Central Asia
BG,Europe and Central Asia
HR,Europe and Central Asia
CY,Europe and Central Asia
CZ,Europe and Central Asia
DK,Europe and Central Asia
EE,Europe and Central Asia
FI,Europe and Central Asia
FR,Europe and Central Asia
GE,Europe and Central Asia
DE,Europe and Central Asia
GR,Europe and Central Asia
HU,Europe and Central Asia
IS,Europe and Central Asia
IE,Europe and Central Asia
IL,Europe and Central Asia
IT,Europe and Central Asia
KZ,Europe and Central Asia
KG,Europe and Central Asia
LV,Europe and Central Asia
LT,Europe and Central Asia
LU,Europe and Central Asia
MT,Europe and Central Asia
MD,Europe and Central Asia
ME,Europe and Central Asia
NL,Europe and Central Asia
NO,Europe and Central Asia
PL,Europe and Central Asia
PT,Europe and Central Asia
MK,Europe and Central Asia
RO,Europe and Central Asia
RU,Europe and Central Asia
SM,Europe and Central Asia
RS,Europe and Central Asia
SK,Europe and Central Asia
SI,Europe and Central Asia
ES,Europe and Central Asia
SE,Europe and Central Asia
CH,Europe and Central Asia
TJ,Europe and Central Asia
TR,Europe and Central Asia
TM,Europe and Central Asia
UA,Europe and Central Asia
GB,Europe and Central Asia
UZ,Europe and Central Asia
