<?xml version="1.0" encoding="UTF-8" standalone="no"?>
<!-- Created with Inkscape (http://www.inkscape.org/) -->

<svg
   xmlns:dc="http://purl.org/dc/elements/1.1/"
   xmlns:cc="http://creativecommons.org/ns#"
   xmlns:rdf="http://www.w3.org/1999/02/22-rdf-syntax-ns#"
   xmlns:svg="http://www.w3.org/2000/svg"
   xmlns="http://www.w3.org/2000/svg"
   xmlns:sodipodi="http://sodipodi.sourceforge.net/DTD/sodipodi-0.dtd"
   xmlns:inkscape="http://www.inkscape.org/namespaces/inkscape"
   width="262.86987mm"
   height="68.539673mm"
   viewBox="0 0 931.42866 242.85711"
   id="svg2"
   version="1.1"
   inkscape:version="0.91 r13725"
   sodipodi:docname="low_risk_copy2.svg">
  <defs
     id="defs4" />
  <sodipodi:namedview
     id="base"
     pagecolor="#ffffff"
     bordercolor="#666666"
     borderopacity="1.0"
     inkscape:pageopacity="0.0"
     inkscape:pageshadow="2"
     inkscape:zoom="0.98994949"
     inkscape:cx="509.28567"
     inkscape:cy="-53.473508"
     inkscape:document-units="px"
     inkscape:current-layer="layer1"
     showgrid="false"
     inkscape:window-width="2560"
     inkscape:window-height="1341"
     inkscape:window-x="0"
     inkscape:window-y="0"
     inkscape:window-maximized="1"
     fit-margin-top="0"
     fit-margin-left="0"
     fit-margin-right="0"
     fit-margin-bottom="0" />
  <metadata
     id="metadata7">
    <rdf:RDF>
      <cc:Work
         rdf:about="">
        <dc:format>image/svg+xml</dc:format>
        <dc:type
           rdf:resource="http://purl.org/dc/dcmitype/StillImage" />
        <dc:title></dc:title>
      </cc:Work>
    </rdf:RDF>
  </metadata>
  <g
     inkscape:label="Layer 1"
     inkscape:groupmode="layer"
     id="layer1"
     transform="translate(-74.285706,-726.64795)">
    <circle
       style="fill:#4db6ac;fill-opacity:1"
       id="path3405"
       cx="194.28571"
       cy="847.65808"
       r="120" />
    <circle
       style="fill:#4db6ac;fill-opacity:0;stroke:#4db6ac;stroke-width:11.42857075;stroke-miterlimit:4;stroke-dasharray:none;stroke-opacity:1"
       id="path3405-7"
       cx="538.51526"
       cy="847.65808"
       inkscape:transform-center-x="331.97275"
       inkscape:transform-center-y="21.768704"
       r="114.28572" />
    <circle
       style="fill:#4db6ac;fill-opacity:0;stroke:#4db6ac;stroke-width:11.42857265;stroke-miterlimit:4;stroke-dasharray:none;stroke-opacity:1"
       id="path3405-5"
       cx="882.74481"
       cy="847.65808"
       r="114.28572" />
  </g>
</svg>
