Component.slug,Material.slug,weight,weight_unit,quantity,source
bipolar_electrolytic_capacitor_radial_55x120,aluminium,118.91,mg,1,"Active Part,Al-foil,Aluminium,CAS 7429-90-5"
bipolar_electrolytic_capacitor_radial_55x120,polyethylene_glycol,8.37,mg,1,"Active Part,Electrolyt,Ethylene Glycol,CAS 25322-68-3"
bipolar_electrolytic_capacitor_radial_55x120,gamma_butyrolactone,62.74,mg,1,"Active Part,Electrolyt,Gamma-Butyrolacton,CAS 96-48-0"
bipolar_electrolytic_capacitor_radial_55x120,non-disclosed,12.55,mg,1,"Active Part,Electrolyt,various additives (proprietary),-"
bipolar_electrolytic_capacitor_radial_55x120,paper,24.91,mg,1,"Active Part,Paper,Paper,-"
bipolar_electrolytic_capacitor_radial_55x120,aluminium,99.17,mg,1,"Encapsulation,Al-case (coated),Aluminium,7429-90-5"
bipolar_electrolytic_capacitor_radial_55x120,rubber,76.61,mg,1,"Encapsulation,Rubber,IIR (Butyl rubber),-"
bipolar_electrolytic_capacitor_radial_55x120,pet,20.68,mg,1,"Encapsulation,shrinkable tube,PET,-"
bipolar_electrolytic_capacitor_radial_55x120,iron,46.06,mg,1,"Termination,Fe (Sn coated) wire,Iron,CAS 7439-89-6"
