Component.slug,Material.slug,weight,weight_unit,quantity,source
diode_100v_sod323,silicon,0.49,mg,1,"Die,Silicon (Si),CAS 7440-21-3"
diode_100v_sod323,nickel,0.31218,mg,1,"Lead Frame,Nickel (Ni),CAS 7440-02-0"
diode_100v_sod323,iron,0.43172,mg,1,"Lead Frame,Iron (Fe),CAS 7439-89-6"
diode_100v_sod323,copper,0.1161,mg,1,"Lead Frame,Copper (Cu),CAS 7440-50-8"
diode_100v_sod323,zinc_borate,0.0906,mg,1,"Mold Compound-Black,Boron zinc hydroxide oxide,CAS 138265-88-0"
diode_100v_sod323,non-disclosed,0.0,mg,1,"Mold Compound-Black,Phenolic Resin,CAS Proprietary"
diode_100v_sod323,zinc_oxide,0.0151,mg,1,"Mold Compound-Black,Zinc Monoxide (ZnO),CAS 1314-13-2"
diode_100v_sod323,melamine,0.0906,mg,1,"Mold Compound-Black,246-triamino-135-triazine isocyanuric acid,CAS 37640-57-6"
diode_100v_sod323,silica,2.265,mg,1,"Mold Compound-Black,Silica Amorphous (SiO2),CAS 7631-86-9"
diode_100v_sod323,carbon_black,0.0151,mg,1,"Mold Compound-Black,Carbon Black (C),CAS 1333-86-4"
diode_100v_sod323,epoxy_resin,0.453,mg,1,"Mold Compound-Black,Ortho  Cresol Novolac Resin,CAS 29690-82-2"
diode_100v_sod323,epoxy_resin,0.13,mg,1,"Plating,Tin (Sn),CAS 7440-31-5"
diode_100v_sod323,epoxy_resin,0.01,mg,1,"Wire Bond - Cu,Copper (Cu),CAS 7440-50-8"
