Component.slug,Material.slug,weight,weight_unit,quantity,source
ic_curcuit-protection_tssop38_9.7x4.4x0.9,silicon,2.32,mg,1,"Die,NA,Silicon (Si),CAS 7440-21-3"
ic_curcuit-protection_tssop38_9.7x4.4x0.9,silver,0.1575,mg,1,"Die Attach,NA,Silver (Ag),CAS 7440-22-4"
ic_curcuit-protection_tssop38_9.7x4.4x0.9,epoxy_resin,0.0525,mg,1,"Die Attach,NA,Epoxy resins,CAS 129915-35-1"
ic_curcuit-protection_tssop38_9.7x4.4x0.9,silver,0.50264,mg,1,"Lead Frame,NA,Silver (Ag),CAS 7440-22-4"
ic_curcuit-protection_tssop38_9.7x4.4x0.9,zinc,0.45872,mg,1,"Lead Frame,NA,Zinc (Zn),CAS 7440-66-6"
ic_curcuit-protection_tssop38_9.7x4.4x0.9,iron,1.14192,mg,1,"Lead Frame,NA,Iron (Fe),CAS 7439-89-6"
ic_curcuit-protection_tssop38_9.7x4.4x0.9,copper,46.6528,mg,1,"Lead Frame,NA,Copper (Cu),CAS 7440-50-8"
ic_curcuit-protection_tssop38_9.7x4.4x0.9,phosphorus,0.04392,mg,1,"Lead Frame,NA,Phosphorus (P),CAS 7723-14-0"
ic_curcuit-protection_tssop38_9.7x4.4x0.9,epoxy_resin,6.6465,mg,1,"Mold Compound-Black,NA,Epoxy   Phenol Resin,CAS proprietary"
ic_curcuit-protection_tssop38_9.7x4.4x0.9,silica,56.6535,mg,1,"Mold Compound-Black,NA,Fused Silica (SiO2),CAS 60676-86-0"
ic_curcuit-protection_tssop38_9.7x4.4x0.9,tin,3.22,mg,1,"Plating,NA,Tin (Sn),CAS 7440-31-5"
ic_curcuit-protection_tssop38_9.7x4.4x0.9,gold,0.45,mg,1,"Wire Bond - Au,NA,Gold (Au),CAS 7440-57-5"
