Component.slug,Material.slug,weight,weight_unit,quantity,source
ic_ht-qfp_64_10x10x1.2,copper,0.000006,mg,1,"Bond Wire,Copper and Its Alloys,Copper,CAS 7440-50-8"
ic_ht-qfp_64_10x10x1.2,iron,0.000006,mg,1,"Bond Wire,Copper and Its Alloys,Iron,CAS 7439-89-6"
ic_ht-qfp_64_10x10x1.2,magnesium,0.000006,mg,1,"Bond Wire,Magnesium and Its Alloys,Magnesium,CAS 7439-95-4"
ic_ht-qfp_64_10x10x1.2,non-disclosed,0.000081,mg,1,"Bond Wire,Not Categorized,Proprietary Materials,CAS "
ic_ht-qfp_64_10x10x1.2,gold,1.141381,mg,1,"Bond Wire,Precious Metals,Gold,CAS 7440-57-5"
ic_ht-qfp_64_10x10x1.2,palladium,0.011402,mg,1,"Bond Wire,Precious Metals,Palladium,CAS 7440-05-3"
ic_ht-qfp_64_10x10x1.2,silver,0.000029,mg,1,"Bond Wire,Precious Metals,Silver,CAS 7440-22-4"
ic_ht-qfp_64_10x10x1.2,silver,2.720343,mg,1,"Die Attach Adhesive,Precious Metals,Silver,CAS 7440-22-4"
ic_ht-qfp_64_10x10x1.2,epoxy_resin,0.480061,mg,1,"Die Attach Adhesive,Thermoplastics,Epoxy,CAS 85954-11-6"
ic_ht-qfp_64_10x10x1.2,copper,204.3044,mg,1,"Lead Frame,Copper and Its Alloys,Copper,CAS 7440-50-8"
ic_ht-qfp_64_10x10x1.2,iron,4.8185,mg,1,"Lead Frame,Copper and Its Alloys,Iron,CAS 7439-89-6"
ic_ht-qfp_64_10x10x1.2,phosphorus,0.06285,mg,1,"Lead Frame,Copper and Its Alloys,Phosphorus,CAS 7723-14-0"
ic_ht-qfp_64_10x10x1.2,tin,0.31425,mg,1,"Lead Frame,Other Nonferrous Metals and Alloys,Tin,CAS 7440-31-5"
ic_ht-qfp_64_10x10x1.2,nickel,3.89992,mg,1,"Lead Frame Plating,Other Nonferrous Metals and Alloys,Nickel,CAS 7440-02-0"
ic_ht-qfp_64_10x10x1.2,gold,0.03198,mg,1,"Lead Frame Plating,Precious Metals,Gold,CAS 7440-57-5"
ic_ht-qfp_64_10x10x1.2,palladium,0.1681,mg,1,"Lead Frame Plating,Precious Metals,Palladium,CAS 7440-05-3"
ic_ht-qfp_64_10x10x1.2,silica,145.71965,mg,1,"Mold Compound,Other Inorganic Materials,Fused Silica,CAS 60676-86-0"
ic_ht-qfp_64_10x10x1.2,carbon_black,0.662362,mg,1,"Mold Compound,Other Plastics and Rubber,Carbon Black,CAS 1333-86-4"
ic_ht-qfp_64_10x10x1.2,epoxy_resin,19.2085,mg,1,"Mold Compound,Thermoplastics,Epoxy,CAS 85954-11-6"
ic_ht-qfp_64_10x10x1.2,silicon,8.835166,mg,1,"Semiconductor Device,Ceramics / Glass,Doped Silicon,CAS 7440-21-3"
