Component.slug,Material.slug,weight,weight_unit,quantity,source
ic_mcu_tqfp32_7x7x1_tin-plated,silica,229.469,mg,1,"Mold Compound,Silica vitreous (or fused),CAS 60676-86-0"
ic_mcu_tqfp32_7x7x1_tin-plated,epoxy_resin,23.487,mg,1,"Mold Compound,Epoxy Resin,CAS Trade Secret"
ic_mcu_tqfp32_7x7x1_tin-plated,phenolic_resin,16.198,mg,1,"Mold Compound,Phenolic Resin,CAS Trade Secret"
ic_mcu_tqfp32_7x7x1_tin-plated,carbon_black,0.810,mg,1,"Mold Compound,Carbon Black,CAS 1333-86-4"
ic_mcu_tqfp32_7x7x1_tin-plated,copper,34.603,mg,1,"Lead Frame,Copper,CAS 7440-50-8"
ic_mcu_tqfp32_7x7x1_tin-plated,tin,0.089,mg,1,"Lead Frame,Tin,CAS 7440-31-5"
ic_mcu_tqfp32_7x7x1_tin-plated,silver,0.677,mg,1,"Lead Frame,Silver,CAS 7440-22-4"
ic_mcu_tqfp32_7x7x1_tin-plated,zinc,0.064,mg,1,"Lead Frame,Zinc,CAS 7440-66-6"
ic_mcu_tqfp32_7x7x1_tin-plated,chromium,0.089,mg,1,"Lead Frame,Chromium,CAS 7440-47-3"
ic_mcu_tqfp32_7x7x1_tin-plated,silver,2.106,mg,1,"Die Attach,Silver (Ag),CAS 7440-22-4"
ic_mcu_tqfp32_7x7x1_tin-plated,non-disclosed,0.228,mg,1,"Die Attach,ANHYDRIDE,CAS Trade Secret"
ic_mcu_tqfp32_7x7x1_tin-plated,epoxy_resin,0.203,mg,1,"Die Attach,EPOXY RESIN,CAS Trade Secret"
ic_mcu_tqfp32_7x7x1_tin-plated,silicon,25.373,mg,1,"Chip (Die),Silicon,CAS 7440-21-3"
ic_mcu_tqfp32_7x7x1_tin-plated,gold,0.677,mg,1,"Wire Bond,Gold,CAS 7440-57-5"
ic_mcu_tqfp32_7x7x1_tin-plated,tin,4.229,mg,1,"Plating on external leads (pins) - Matte Tin / annealed at 150°C for 1 hour,Tin,CAS 7440-31-5"
