Component.slug,Material.slug,weight,weight_unit,quantity,source
ic_power-management_dfn10_3.0x3.0x0.9,copper,0.229687,mg,1,"Bond Wire,Copper and Its Alloys,Copper,CAS 7440-50-8"
ic_power-management_dfn10_3.0x3.0x0.9,iron,0.000001,mg,1,"Bond Wire,Copper and Its Alloys,Iron,CAS 7439-89-6"
ic_power-management_dfn10_3.0x3.0x0.9,calcium,0.000001,mg,1,"Bond Wire,Other Nonferrous Metals and Alloys,Calcium,CAS 7440-70-2"
ic_power-management_dfn10_3.0x3.0x0.9,silver,0.000004,mg,1,"Bond Wire,Precious Metals,Silver,CAS 7440-22-4"
ic_power-management_dfn10_3.0x3.0x0.9,silver,0.533206,mg,1,"Die Attach Adhesive,Precious Metals,Silver,CAS 7440-22-4"
ic_power-management_dfn10_3.0x3.0x0.9,epoxy_resin,0.124261,mg,1,"Die Attach Adhesive,Thermoplastics,Epoxy,CAS 85954-11-6"
ic_power-management_dfn10_3.0x3.0x0.9,copper,13.150625,mg,1,"Lead Frame,Copper and Its Alloys,Copper,CAS 7440-50-8"
ic_power-management_dfn10_3.0x3.0x0.9,chromium,0.03445,mg,1,"Lead Frame,Other Nonferrous Metals and Alloys,Chromium,CAS 7440-47-3"
ic_power-management_dfn10_3.0x3.0x0.9,tin,0.033125,mg,1,"Lead Frame,Other Nonferrous Metals and Alloys,Tin,CAS 7440-31-5"
ic_power-management_dfn10_3.0x3.0x0.9,zinc,0.0318,mg,1,"Lead Frame,Zinc and Its Alloys,Zinc,CAS 7440-66-6"
ic_power-management_dfn10_3.0x3.0x0.9,nickel,0.228288,mg,1,"Lead Frame Plating,Nickel and Its Alloys,Nickel,CAS 7440-02-0"
ic_power-management_dfn10_3.0x3.0x0.9,gold,0.001872,mg,1,"Lead Frame Plating,Precious Metals,Gold,CAS 7440-57-5"
ic_power-management_dfn10_3.0x3.0x0.9,palladium,0.00984,mg,1,"Lead Frame Plating,Precious Metals,Palladium,CAS 7440-05-3"
ic_power-management_dfn10_3.0x3.0x0.9,silica,9.700914,mg,1,"Mold Compound,Other Inorganic Materials,Fused Silica,CAS 60676-86-0"
ic_power-management_dfn10_3.0x3.0x0.9,carbon_black,0.053596,mg,1,"Mold Compound,Other Plastics and Rubber,Carbon Black,CAS 1333-86-4"
ic_power-management_dfn10_3.0x3.0x0.9,epoxy_resin,0.964732,mg,1,"Mold Compound,Thermoplastics,Epoxy,CAS 85954-11-6"
ic_power-management_dfn10_3.0x3.0x0.9,silicon,1.99435,mg,1,"Semiconductor Device,Ceramics / Glass,Doped Silicon,CAS 7440-21-3"
